{
  "name": "AliExpress",
  "documents": {
    "Terms of Service": {
      "fetch": "https://terms.alicdn.com/legal-agreement/terms/suit_bu1_aliexpress/suit_bu1_aliexpress202109291856_35940.html?spm=a2g0o.tm1000003713.4640543600.2.14876f3dylfDGv&aecmd=true",
      "select": [
        ".agreementpreview"
      ]
    },
    "Terms and Conditions for platform transactions": {
      "fetch": "https://terms.alicdn.com/legal-agreement/terms/suit_bu1_aliexpress/suit_bu1_aliexpress202109291856_35940.html?spm=a2g0o.tm1000003713.4640543600.2.218228876mHVoU&aecmd=true",
      "select": [
        ".agreementpreview"
      ]
    },
	"Terms of Use": {
	  "fetch": "https://terms.alicdn.com/legal-agreement/terms/suit_bu1_aliexpress/suit_bu1_aliexpress202204182115_66077.html?spm=a2g0o.home.0.0.650c2145Z0MbOS",
	  "select": [
		"article"
	  ]
	},
	"Community Guidelines": {
      "fetch": "https://customerservice.aliexpress.com/knowledgeDetail?spm=a1zaa.8161610.0.0.3d16218fZd8SxF&categoryId=21039549&hcAppId=1248&hcFromCode=Xn2Tk1tb7&hcSessionId=26-1248-f19e58b5-3507-4db8-94f6-300d1b0f5a5c&knowledgeId=587919",
      "select": [
        "#c_l6ktyxu8-content"
      ],
      "executeClientScripts": true
    },
	"Marketplace Buyers Conditions": {
      "fetch": "https://rulechannel.alibaba.com/icbu?type=detail&ruleId=2042&cId=1303#/rule/detail?cId=1303&ruleId=2042",
      "select": [
        ".rule-detail-text"
      ],
      "remove": [
        ".evaluate-title",
        ".evaluate-btn",
        ".rule-text-indicate",
        ".tc-item:nth-child(1)",
        ".tc-item:nth-child(2)",
        ".tc-item:nth-child(3)",
        ".tc-item:nth-child(4)",
        ".tc-item:nth-child(5)",
        ".tc-item:nth-child(6)",
        ".tc-item:nth-child(7)",
        ".tc-item:nth-child(8)",
        ".tc-item:nth-child(9)",
        ".tc-item:nth-child(10)",
        ".tc-item:nth-child(11)",
        ".tc-item:nth-child(12)",
        ".tc-item:nth-child(13)",
        ".tc-item:nth-child(14)",
        ".tc-item:nth-child(15)",
        ".tc-item:nth-child(16)",
        ".tc-item:nth-child(17)",
        ".tc-item:nth-child(18)"
      ],
      "executeClientScripts": true
    }
  }
}
