{
  "name": "azuremarketplace.microsoft.com",
  "documents": {
    "Terms of Service": {
      "fetch": "https://azure.microsoft.com/en-us/support/legal/",
      "select": [
        ".grid-image-layout-container-uid00ac"
      ]
    }
  }
}
