{
  "name": "Bing",
  "documents": {
    "Terms of Service": {
      "fetch": "https://www.microsoft.com/en/servicesagreement",
      "select": [
        "#layout-container-uid1b1d > .container",
        "#layout-container-uidc91b > .container"
      ],
      "remove": [
        ".col-sm",
        ".col-12 > .richtext > .cmp-text",
        ".f_small"
      ]
    },
    "Complaints Policy": {
      "fetch": "https://www.microsoft.com/en-us/legal/intellectualproperty/infringement",
      "select": [
        ".microsoft-template-layout-container > .aem-Grid > .responsivegrid > .aem-Grid"
      ]
    },
    "Copyright Claims Policy": {
      "fetch": "https://about.ads.microsoft.com/en-us/policies/intellectual-property-policies",
      "select": [
        ".col-xs-12"
      ],
      "remove": [
        ".policies-footer",
        ".policies-sidebar"
      ]
    },
    "Community Guidelines": {
      "fetch": "https://www.microsoft.com/en/servicesagreement#3_codeOfConduct",
      "select": [
        ".row-bg-color-layout-container-uid1b1d > .col",
        ".row-bg-color-layout-container-uidbe0b > .col"
      ],
      "remove": [
        "#print-uid9c96"
      ]
    },
    "New Ranking Parameters Description": {
      "fetch": "https://www.bing.com/webmasters/help/webmasters-guidelines-30fba23a",
      "select": [
        ".containerLayout"
      ],
      "remove": [
        "#Picture\\ 1"
      ],
      "executeClientScripts": true
    },
    "Ranking Parameters Description": {
      "fetch": "https://support.microsoft.com/en-gb/topic/how-bing-delivers-search-results-d18fc815-ac37-4723-bc67-9229ce3eb6a3",
      "select": [
        "#supArticleContent"
      ],
      "remove": [
        "[aria-label=\"RELATED TOPICS\"]",
        ".ocArticleFooterShareLinksWrapper",
        ".ocArticleFooterElementContainer"
      ]
    },
    "Copilot AI experiences terms of service": {
      "fetch": "https://www.bing.com/new/termsofuse",
      "select": [
        ".gi_lgl_top_h",
        ".pt_s",
        ".pt:nth-child(3)",
        ".pt:nth-child(4)",
        ".pt:nth-child(5)",
        ".gi_lgl_h:nth-child(8)",
        ".pt_l",
        ".pt:nth-child(10)",
        "#content-copilot-policy",
        ".gi_lgl_p:nth-child(2)",
        ".gi_lgl_p > li:nth-child(1)",
        ".gi_lgl_p > li:nth-child(2)",
        ".gi_lgl_p > li:nth-child(3)",
        ".gi_lgl_p > li:nth-child(4)",
        ".gi_lgl_p > li:nth-child(5)",
        ".gi_lgl_p > li:nth-child(6)",
        ".gi_lgl_p > li:nth-child(7)",
        ".gi_lgl_h2:nth-child(5) > strong",
        ".gi_lgl_p:nth-child(6)",
        ".gi_lgl_h2:nth-child(7) > strong",
        ".gi_lgl_p:nth-child(8)"
      ],
      "executeClientScripts": true
    },
    "Privacy Policy": {
      "fetch": "https://privacy.microsoft.com/en-US/privacystatement",
      "select": [
        ".page-header",
        "#main"
      ],
      "remove": [
        ".l-col-2-12"
      ]
    },
    "Commercial Terms": {
      "fetch": "https://learn.microsoft.com/en-us/copilot/terms-of-use",
      "select": [
        "#main"
      ],
      "remove": [
        "#user-feedback-button",
        "#article-header-page-actions",
        ".inner-focus"
      ]
    }
  }
}