{
  "name": "blablacar.cz",
  "documents": {
    "Terms of Service": {
      "fetch": "https://blog.blablacar.cz/about-us/terms-and-conditions",
      "select": [
        ".o-custom-page__content"
      ],
      "remove": [
        ".s-post-content > div:nth-child(1)"
      ]
    }
  }
}
