{
  "name": "carrefour.ro",
  "documents": {
    "Terms of Service": {
      "fetch": "https://carrefour.ro/terms-conditions",
      "select": [
        ".columns > .column"
      ],
      "remove": [
        ".selected > strong",
        "li:nth-child(3) strong"
      ]
    }
  }
}
