{
  "name": "Chabber",
  "documents": {
    "Terms of Service": {
      "fetch": "https://www.chabber.com/aboutus",
      "select": [
        ".MuiDialogContent-root"
      ],
      "executeClientScripts": true
    }
  }
}
