{
  "name": "Groupon Merchant",
  "documents": {
    "Terms of Service": {
      "fetch": "https://www.groupon.com/merchant/legal/terms-of-use",
      "select": [
        ".row:nth-child(4) .wh-text-widget > div"
      ],
      "executeClientScripts": true
    }
  }
}
