{
  "name": "kayak.cat",
  "documents": {
    "Terms of Service": {
      "fetch": "https://www.kayak.cat/terms-of-use",
      "select": [
        ".HA4N-main-list",
        ".HA4N > p:nth-child(1)",
        ".HA4N > p:nth-child(2)",
        ".HA4N > p:nth-child(3)",
        "p:nth-child(5)",
        ".HA4N > p:nth-child(6)"
      ]
    }
  }
}
