{
  "name": "mi.com",
  "documents": {
    "Terms of Service": {
      "fetch": "https://www.mi.com/global/about/agreement/",
      "select": [
        ".site-main"
      ],
      "remove": [
        ".bubble-switcher"
      ]
    }
  }
}
