{
  "name": "Sky",
  "documents": {
    "Terms of Service": {
      "fetch": "https://www.sky.com/help/articles/sky-terms-and-conditions",
      "select": [
        ".Article__ArticleContainer-sc-18tycar-0"
      ]
    }
  }
}