{
  "name": "subito.it",
  "documents": {
    "Terms of Service": {
      "fetch": "https://info.subito.it/policies/condizioni-generali.htm",
      "select": [
        ".plain-text-body"
      ]
    }
  }
}
