{
  "name": "Temu",
  "documents": {
    "Terms of Service": {
      "fetch": "https://www.temu.com/terms-of-use.html",
      "select": [
        ".baseContent"
      ],
      "executeClientScripts": true
    },
    "Community Guidelines": {
      "fetch": "https://www.temu.com/community-guidelines.html",
      "select": [
        ".container-3UBnw"
      ],
      "executeClientScripts": true
    },
    "Quality Guidelines": {
      "fetch": "https://www.temu.com/review_guidelines.html",
      "select": [
        "div.mainContent + div.mainContent"
      ],
      "executeClientScripts": true
    },
    "Privacy Policy": {
      "fetch": "https://www.temu.com/privacy-and-cookie-policy.html",
      "select": [
        "div.mainContent + div.mainContent"
      ],
      "executeClientScripts": true
    }
  }
}
