{
  "name": "Vinted",
  "documents": {
    "Terms of Service": {
      "fetch": "https://www.vinted.com/terms_and_conditions",
      "select": [
        ".u-padding-none\\@portables"
      ],
      "executeClientScripts": true
    },
    "Marketplace Sellers Conditions": {
      "combine": [
        {
          "fetch": "https://www.vinted.es/pro-terms-of-use",
          "select": [
            ".web_ui__Cell__wide"
          ],
          "executeClientScripts": true
        },
        {
          "fetch": "https://www.vinted.es/pro-guide",
          "select": [
            ".web_ui__Cell__wide"
          ],
          "executeClientScripts": true
        }
      ]
    }
  }
}
